// Jest Snapshot v1, https://goo.gl/fbAQLP

exports[`ChallengeInfo renders 1`] = `
<View
  collapsable={false}
  pointerEvents="box-none"
  style={
    Object {
      "flex": 1,
    }
  }
>
  <View>
    <Image
      source={
        Object {
          "uri": "http://test.local/image/url",
        }
      }
      style={
        Object {
          "height": 150,
          "width": "100%",
        }
      }
    />
    <View
      style={
        Object {
          "paddingHorizontal": 8,
          "paddingVertical": 4,
        }
      }
    >
      <View>
        <Text
          style={
            Array [
              Object {
                "color": "#000000",
                "fontFamily": "System",
                "fontWeight": "400",
                "textAlign": "left",
              },
              Array [
                Object {
                  "color": "rgba(0, 0, 0, 0.87)",
                  "fontFamily": "System",
                  "fontWeight": "400",
                  "textAlign": "left",
                  "writingDirection": "ltr",
                },
                Array [
                  Object {
                    "fontSize": 24,
                    "letterSpacing": 0,
                    "lineHeight": 32,
                    "marginVertical": 2,
                  },
                  Object {
                    "alignItems": "center",
                    "display": "flex",
                    "flexDirection": "column",
                    "fontSize": 18,
                    "fontWeight": "500",
                    "justifyContent": "center",
                  },
                ],
                Array [
                  Object {
                    "fontSize": 24,
                    "letterSpacing": 0,
                    "lineHeight": 32,
                    "marginVertical": 2,
                  },
                  Object {
                    "alignItems": "center",
                    "display": "flex",
                    "flexDirection": "column",
                    "fontSize": 18,
                    "fontWeight": "500",
                    "justifyContent": "center",
                  },
                ],
              ],
            ]
          }
        >
          Challenge Title
        </Text>
      </View>
      <Text
        style={
          Array [
            Object {
              "color": "#000000",
              "fontFamily": "System",
              "fontWeight": "400",
              "textAlign": "left",
            },
            Array [
              Object {
                "color": "rgba(0, 0, 0, 0.87)",
                "fontFamily": "System",
                "fontWeight": "400",
                "textAlign": "left",
                "writingDirection": "ltr",
              },
              Array [
                Object {
                  "fontSize": 14,
                  "letterSpacing": 0.25,
                  "lineHeight": 20,
                  "marginVertical": 2,
                },
                Object {
                  "color": "#838383",
                  "fontSize": 14,
                },
              ],
              Array [
                Object {
                  "fontSize": 14,
                  "letterSpacing": 0.25,
                  "lineHeight": 20,
                  "marginVertical": 2,
                },
                Object {
                  "color": "#838383",
                  "fontSize": 14,
                },
              ],
            ],
          ]
        }
      />
    </View>
    <View
      style={
        Array [
          Object {
            "backgroundColor": "rgba(0, 0, 0, 0.12)",
            "height": 0.5,
          },
          undefined,
          undefined,
        ]
      }
    />
  </View>
</View>
`;

exports[`ChallengeInfo renders monthly hard 1`] = `
<View
  collapsable={false}
  pointerEvents="box-none"
  style={
    Object {
      "flex": 1,
    }
  }
>
  <View>
    <Image
      source={
        Object {
          "uri": "http://test.local/image/url",
        }
      }
      style={
        Object {
          "height": 150,
          "width": "100%",
        }
      }
    />
    <View
      style={
        Object {
          "paddingHorizontal": 8,
          "paddingVertical": 4,
        }
      }
    >
      <View>
        <Text
          style={
            Array [
              Object {
                "color": "#000000",
                "fontFamily": "System",
                "fontWeight": "400",
                "textAlign": "left",
              },
              Array [
                Object {
                  "color": "rgba(0, 0, 0, 0.87)",
                  "fontFamily": "System",
                  "fontWeight": "400",
                  "textAlign": "left",
                  "writingDirection": "ltr",
                },
                Array [
                  Object {
                    "fontSize": 24,
                    "letterSpacing": 0,
                    "lineHeight": 32,
                    "marginVertical": 2,
                  },
                  Object {
                    "alignItems": "center",
                    "display": "flex",
                    "flexDirection": "column",
                    "fontSize": 18,
                    "fontWeight": "500",
                    "justifyContent": "center",
                  },
                ],
                Array [
                  Object {
                    "fontSize": 24,
                    "letterSpacing": 0,
                    "lineHeight": 32,
                    "marginVertical": 2,
                  },
                  Object {
                    "alignItems": "center",
                    "display": "flex",
                    "flexDirection": "column",
                    "fontSize": 18,
                    "fontWeight": "500",
                    "justifyContent": "center",
                  },
                ],
              ],
            ]
          }
        >
          Challenge Title
        </Text>
      </View>
      <Text
        style={
          Array [
            Object {
              "color": "#000000",
              "fontFamily": "System",
              "fontWeight": "400",
              "textAlign": "left",
            },
            Array [
              Object {
                "color": "rgba(0, 0, 0, 0.87)",
                "fontFamily": "System",
                "fontWeight": "400",
                "textAlign": "left",
                "writingDirection": "ltr",
              },
              Array [
                Object {
                  "fontSize": 14,
                  "letterSpacing": 0.25,
                  "lineHeight": 20,
                  "marginVertical": 2,
                },
                Object {
                  "color": "#838383",
                  "fontSize": 14,
                },
              ],
              Array [
                Object {
                  "fontSize": 14,
                  "letterSpacing": 0.25,
                  "lineHeight": 20,
                  "marginVertical": 2,
                },
                Object {
                  "color": "#838383",
                  "fontSize": 14,
                },
              ],
            ],
          ]
        }
      />
    </View>
    <View
      style={
        Array [
          Object {
            "backgroundColor": "rgba(0, 0, 0, 0.12)",
            "height": 0.5,
          },
          undefined,
          undefined,
        ]
      }
    />
  </View>
</View>
`;

exports[`ChallengeInfo renders unkown periodicity 1`] = `
<View
  collapsable={false}
  pointerEvents="box-none"
  style={
    Object {
      "flex": 1,
    }
  }
>
  <View>
    <Image
      source={
        Object {
          "uri": "http://test.local/image/url",
        }
      }
      style={
        Object {
          "height": 150,
          "width": "100%",
        }
      }
    />
    <View
      style={
        Object {
          "paddingHorizontal": 8,
          "paddingVertical": 4,
        }
      }
    >
      <View>
        <Text
          style={
            Array [
              Object {
                "color": "#000000",
                "fontFamily": "System",
                "fontWeight": "400",
                "textAlign": "left",
              },
              Array [
                Object {
                  "color": "rgba(0, 0, 0, 0.87)",
                  "fontFamily": "System",
                  "fontWeight": "400",
                  "textAlign": "left",
                  "writingDirection": "ltr",
                },
                Array [
                  Object {
                    "fontSize": 24,
                    "letterSpacing": 0,
                    "lineHeight": 32,
                    "marginVertical": 2,
                  },
                  Object {
                    "alignItems": "center",
                    "display": "flex",
                    "flexDirection": "column",
                    "fontSize": 18,
                    "fontWeight": "500",
                    "justifyContent": "center",
                  },
                ],
                Array [
                  Object {
                    "fontSize": 24,
                    "letterSpacing": 0,
                    "lineHeight": 32,
                    "marginVertical": 2,
                  },
                  Object {
                    "alignItems": "center",
                    "display": "flex",
                    "flexDirection": "column",
                    "fontSize": 18,
                    "fontWeight": "500",
                    "justifyContent": "center",
                  },
                ],
              ],
            ]
          }
        >
          Challenge Title
        </Text>
      </View>
      <Text
        style={
          Array [
            Object {
              "color": "#000000",
              "fontFamily": "System",
              "fontWeight": "400",
              "textAlign": "left",
            },
            Array [
              Object {
                "color": "rgba(0, 0, 0, 0.87)",
                "fontFamily": "System",
                "fontWeight": "400",
                "textAlign": "left",
                "writingDirection": "ltr",
              },
              Array [
                Object {
                  "fontSize": 14,
                  "letterSpacing": 0.25,
                  "lineHeight": 20,
                  "marginVertical": 2,
                },
                Object {
                  "color": "#838383",
                  "fontSize": 14,
                },
              ],
              Array [
                Object {
                  "fontSize": 14,
                  "letterSpacing": 0.25,
                  "lineHeight": 20,
                  "marginVertical": 2,
                },
                Object {
                  "color": "#838383",
                  "fontSize": 14,
                },
              ],
            ],
          ]
        }
      />
    </View>
    <View
      style={
        Array [
          Object {
            "backgroundColor": "rgba(0, 0, 0, 0.12)",
            "height": 0.5,
          },
          undefined,
          undefined,
        ]
      }
    />
  </View>
</View>
`;

exports[`ChallengeInfo renders weekly advanced 1`] = `
<View
  collapsable={false}
  pointerEvents="box-none"
  style={
    Object {
      "flex": 1,
    }
  }
>
  <View>
    <Image
      source={
        Object {
          "uri": "http://test.local/image/url",
        }
      }
      style={
        Object {
          "height": 150,
          "width": "100%",
        }
      }
    />
    <View
      style={
        Object {
          "paddingHorizontal": 8,
          "paddingVertical": 4,
        }
      }
    >
      <View>
        <Text
          style={
            Array [
              Object {
                "color": "#000000",
                "fontFamily": "System",
                "fontWeight": "400",
                "textAlign": "left",
              },
              Array [
                Object {
                  "color": "rgba(0, 0, 0, 0.87)",
                  "fontFamily": "System",
                  "fontWeight": "400",
                  "textAlign": "left",
                  "writingDirection": "ltr",
                },
                Array [
                  Object {
                    "fontSize": 24,
                    "letterSpacing": 0,
                    "lineHeight": 32,
                    "marginVertical": 2,
                  },
                  Object {
                    "alignItems": "center",
                    "display": "flex",
                    "flexDirection": "column",
                    "fontSize": 18,
                    "fontWeight": "500",
                    "justifyContent": "center",
                  },
                ],
                Array [
                  Object {
                    "fontSize": 24,
                    "letterSpacing": 0,
                    "lineHeight": 32,
                    "marginVertical": 2,
                  },
                  Object {
                    "alignItems": "center",
                    "display": "flex",
                    "flexDirection": "column",
                    "fontSize": 18,
                    "fontWeight": "500",
                    "justifyContent": "center",
                  },
                ],
              ],
            ]
          }
        >
          Challenge Title 14124
        </Text>
      </View>
      <Text
        style={
          Array [
            Object {
              "color": "#000000",
              "fontFamily": "System",
              "fontWeight": "400",
              "textAlign": "left",
            },
            Array [
              Object {
                "color": "rgba(0, 0, 0, 0.87)",
                "fontFamily": "System",
                "fontWeight": "400",
                "textAlign": "left",
                "writingDirection": "ltr",
              },
              Array [
                Object {
                  "fontSize": 14,
                  "letterSpacing": 0.25,
                  "lineHeight": 20,
                  "marginVertical": 2,
                },
                Object {
                  "color": "#838383",
                  "fontSize": 14,
                },
              ],
              Array [
                Object {
                  "fontSize": 14,
                  "letterSpacing": 0.25,
                  "lineHeight": 20,
                  "marginVertical": 2,
                },
                Object {
                  "color": "#838383",
                  "fontSize": 14,
                },
              ],
            ],
          ]
        }
      />
    </View>
    <View
      style={
        Array [
          Object {
            "backgroundColor": "rgba(0, 0, 0, 0.12)",
            "height": 0.5,
          },
          undefined,
          undefined,
        ]
      }
    />
  </View>
</View>
`;
